%YAML 1.1
%TAG !u! tag:unity3d.com,2011:
--- !u!1045 &1
EditorBuildSettings:
  m_ObjectHideFlags: 0
  serializedVersion: 2
  m_Scenes:
  - enabled: 1
    path: Assets/Scenes/menu.unity
    guid: b0c8087d4944728438ad61175b4768ba
  - enabled: 1
    path: Assets/Scenes/SampleScene.unity
    guid: 2cda990e2423bbf4892e6590ba056729
  - enabled: 1
    path: Assets/Scenes/menuMulti.unity
    guid: 9f8e7bef5ceba0948b165d66b0ad3df4
  - enabled: 1
    path: Assets/Scenes/multiPlayer.unity
    guid: 069319536662f8740a7985ddd7aa1120
  m_configObjects: {}
